{
  "project_info": {
    "project_number": "268420047464",
    "firebase_url": "https://gitlab-test-project-4715a.firebaseio.com",
    "project_id": "gitlab-test-project-4715a",
    "storage_bucket": "gitlab-test-project-4715a.appspot.com"
  },
  "client": [
    {
      "client_info": {
        "mobilesdk_app_id": "1:268420047464:android:374609e407f4f56de911dd",
        "android_client_info": {
          "package_name": "ru.itis.g11801.saetova.gitlabciproject"
        }
      },
      "oauth_client": [
        {
          "client_id": "268420047464-5io1rhu1jhicskg8d0erl97vbfqd2e9q.apps.googleusercontent.com",
          "client_type": 3
        }
      ],
      "api_key": [
        {
          "current_key": "AIzaSyA-eYmOTpe8z5Kj28L87CG8lZ6rkh3XsQo"
        }
      ],
      "services": {
        "appinvite_service": {
          "other_platform_oauth_client": [
            {
              "client_id": "268420047464-5io1rhu1jhicskg8d0erl97vbfqd2e9q.apps.googleusercontent.com",
              "client_type": 3
            }
          ]
        }
      }
    }
  ],
  "configuration_version": "1"
}